{
	"info": {
		"_postman_id": "4cb3821a-d863-49c8-b3d0-e5f758edb2ee",
		"name": "B170 -s28",
		"schema": "https://schema.getpostman.com/json/collection/v2.1.0/collection.json"
	},
	"item": [
		{
			"name": "Activity",
			"item": [
				{
					"name": "Get Rqst-get all to do list items",
					"request": {
						"method": "GET",
						"header": []
					},
					"response": []
				},
				{
					"name": "Get Rqst-get to do list item",
					"request": {
						"method": "GET",
						"header": []
					},
					"response": []
				},
				{
					"name": "Post Rqst-create to do list item",
					"request": {
						"method": "GET",
						"header": []
					},
					"response": []
				},
				{
					"name": "Put Rqst-update to do list item",
					"request": {
						"method": "GET",
						"header": []
					},
					"response": []
				},
				{
					"name": "Patch Rqst-update to do list item",
					"request": {
						"method": "GET",
						"header": []
					},
					"response": []
				},
				{
					"name": "Delete Rqst-delete to do list item",
					"request": {
						"method": "GET",
						"header": []
					},
					"response": []
				}
			]
		}
	]
}